
./tezos-client --wait none originate sc rollup from bootstrap1 of kind arith of type string booting with '10 10 10 + +' --burn-cap 9999999
Node is bootstrapped.
Estimated gas: 3110.477 units (will add 100 for safety)
Estimated storage: 6663 bytes added (will add 20 for safety)
Operation successfully injected in the node.
Operation hash is '[OPERATION_HASH]'
NOT waiting for the operation to be included.
Use command
  tezos-client wait for [OPERATION_HASH] to be included --confirmations 1 --branch [BLOCK_HASH]
and/or an external block explorer to make sure that it has been included.
This sequence of operations was run:
  Manager signed operations:
    From: [PUBLIC_KEY_HASH]
    Fee to the baker: ꜩ0.000686
    Expected counter: 1
    Gas limit: 3211
    Storage limit: 6683 bytes
    Balance updates:
      [PUBLIC_KEY_HASH] ... -ꜩ0.000686
      payload fees(the block proposer) ....... +ꜩ0.000686
    Smart contract rollup origination:
      Kind: arith
      Parameter type: string
      Boot sector: '10 10 10 + +'
      This smart contract rollup origination was successfully applied
      Consumed gas: 3110.477
      Storage size: 6663 bytes
      Address: [SC_ROLLUP_HASH]
      Genesis commitment hash: [SC_ROLLUP_COMMITMENT_HASH]
      Balance updates:
        [PUBLIC_KEY_HASH] ... -ꜩ1.66575
        storage fees ........................... +ꜩ1.66575


./tezos-client rpc get '/chains/main/blocks/head/context/sc_rollup/[SC_ROLLUP_HASH]/genesis_info'
{ "level": 2,
  "commitment_hash": "[SC_ROLLUP_COMMITMENT_HASH]" }

./tezos-client --wait none send sc rollup message 'text:["10 +"]' from bootstrap2 to '[SC_ROLLUP_HASH]'
Node is bootstrapped.
Estimated gas: 1876.654 units (will add 100 for safety)
Estimated storage: no bytes added
Operation successfully injected in the node.
Operation hash is '[OPERATION_HASH]'
NOT waiting for the operation to be included.
Use command
  tezos-client wait for [OPERATION_HASH] to be included --confirmations 1 --branch [BLOCK_HASH]
and/or an external block explorer to make sure that it has been included.
This sequence of operations was run:
  Manager signed operations:
    From: [PUBLIC_KEY_HASH]
    Fee to the baker: ꜩ0.000475
    Expected counter: 1
    Gas limit: 1977
    Storage limit: 0 bytes
    Balance updates:
      [PUBLIC_KEY_HASH] ... -ꜩ0.000475
      payload fees(the block proposer) ....... +ꜩ0.000475
    Smart contract rollup messages submission:
      Address: [SC_ROLLUP_HASH]
      This smart contract rollup messages submission was successfully applied
      Consumed gas: 1876.782
      Resulting inbox state: { rollup = [SC_ROLLUP_HASH]
                               level = 3
                               current messages hash  = [SC_ROLLUP_INBOX_HASH]
                               nb_messages_in_commitment_period = 1
                               starting_level_of_current_commitment_period = 2
                               message_counter = 1
                               old_levels_messages = hash : [SC_ROLLUP_INBOX_HASH]
                                                     
       content = [SC_ROLLUP_INBOX_HASH]
       index = 1
       back_pointers = [SC_ROLLUP_INBOX_HASH]
    
                               }


./tezos-sc-rollup-client-alpha rpc get /global/state_hash
"scs1371W53YVrt8USjs6PafacnNV6ZoFr4VjvyKP9UYszqdg5v4ZC7"

./tezos-client --wait none originate sc rollup from bootstrap1 of kind arith of type string booting with 31 --burn-cap 9999999
Node is bootstrapped.
Estimated gas: 3110.437 units (will add 100 for safety)
Estimated storage: 6653 bytes added (will add 20 for safety)
Operation successfully injected in the node.
Operation hash is '[OPERATION_HASH]'
NOT waiting for the operation to be included.
Use command
  tezos-client wait for [OPERATION_HASH] to be included --confirmations 1 --branch [BLOCK_HASH]
and/or an external block explorer to make sure that it has been included.
This sequence of operations was run:
  Manager signed operations:
    From: [PUBLIC_KEY_HASH]
    Fee to the baker: ꜩ0.000676
    Expected counter: 2
    Gas limit: 3211
    Storage limit: 6673 bytes
    Balance updates:
      [PUBLIC_KEY_HASH] ... -ꜩ0.000676
      payload fees(the block proposer) ....... +ꜩ0.000676
    Smart contract rollup origination:
      Kind: arith
      Parameter type: string
      Boot sector: '31'
      This smart contract rollup origination was successfully applied
      Consumed gas: 3110.437
      Storage size: 6653 bytes
      Address: [SC_ROLLUP_HASH]
      Genesis commitment hash: [SC_ROLLUP_COMMITMENT_HASH]
      Balance updates:
        [PUBLIC_KEY_HASH] ... -ꜩ1.66325
        storage fees ........................... +ꜩ1.66325


./tezos-client rpc get '/chains/main/blocks/head/context/sc_rollup/[SC_ROLLUP_HASH]/genesis_info'
{ "level": 4,
  "commitment_hash": "[SC_ROLLUP_COMMITMENT_HASH]" }

./tezos-client --wait none send sc rollup message 'text:["10 +"]' from bootstrap2 to '[SC_ROLLUP_HASH]'
Node is bootstrapped.
Estimated gas: 1876.654 units (will add 100 for safety)
Estimated storage: no bytes added
Operation successfully injected in the node.
Operation hash is '[OPERATION_HASH]'
NOT waiting for the operation to be included.
Use command
  tezos-client wait for [OPERATION_HASH] to be included --confirmations 1 --branch [BLOCK_HASH]
and/or an external block explorer to make sure that it has been included.
This sequence of operations was run:
  Manager signed operations:
    From: [PUBLIC_KEY_HASH]
    Fee to the baker: ꜩ0.000475
    Expected counter: 2
    Gas limit: 1977
    Storage limit: 0 bytes
    Balance updates:
      [PUBLIC_KEY_HASH] ... -ꜩ0.000475
      payload fees(the block proposer) ....... +ꜩ0.000475
    Smart contract rollup messages submission:
      Address: [SC_ROLLUP_HASH]
      This smart contract rollup messages submission was successfully applied
      Consumed gas: 1876.782
      Resulting inbox state: { rollup = [SC_ROLLUP_HASH]
                               level = 5
                               current messages hash  = [SC_ROLLUP_INBOX_HASH]
                               nb_messages_in_commitment_period = 1
                               starting_level_of_current_commitment_period = 4
                               message_counter = 1
                               old_levels_messages = hash : [SC_ROLLUP_INBOX_HASH]
                                                     
       content = [SC_ROLLUP_INBOX_HASH]
       index = 1
       back_pointers = [SC_ROLLUP_INBOX_HASH]
    
                               }


./tezos-sc-rollup-client-alpha rpc get /global/state_hash
"scs133L8aujCeqJqKx57baw8LMN3CJM6iPTU1tdV72Y171fZpuofKV"
