
./tezos-client --wait none originate sc rollup from bootstrap1 of kind arith of type string booting with  --burn-cap 9999999
Node is bootstrapped.
Estimated gas: 3110.429 units (will add 100 for safety)
Estimated storage: 6651 bytes added (will add 20 for safety)
Operation successfully injected in the node.
Operation hash is '[OPERATION_HASH]'
NOT waiting for the operation to be included.
Use command
  tezos-client wait for [OPERATION_HASH] to be included --confirmations 1 --branch [BLOCK_HASH]
and/or an external block explorer to make sure that it has been included.
This sequence of operations was run:
  Manager signed operations:
    From: [PUBLIC_KEY_HASH]
    Fee to the baker: ꜩ0.000674
    Expected counter: 1
    Gas limit: 3211
    Storage limit: 6671 bytes
    Balance updates:
      [PUBLIC_KEY_HASH] ... -ꜩ0.000674
      payload fees(the block proposer) ....... +ꜩ0.000674
    Smart contract rollup origination:
      Kind: arith
      Parameter type: string
      Boot sector: ''
      This smart contract rollup origination was successfully applied
      Consumed gas: 3110.429
      Storage size: 6651 bytes
      Address: [SC_ROLLUP_HASH]
      Genesis commitment hash: [SC_ROLLUP_COMMITMENT_HASH]
      Balance updates:
        [PUBLIC_KEY_HASH] ... -ꜩ1.66275
        storage fees ........................... +ꜩ1.66275


./tezos-client --wait none send sc rollup message 'text:["CAFEBABE"]' from bootstrap2 to '[SC_ROLLUP_HASH]'
Node is bootstrapped.
Estimated gas: 1876.722 units (will add 100 for safety)
Estimated storage: no bytes added
Operation successfully injected in the node.
Operation hash is '[OPERATION_HASH]'
NOT waiting for the operation to be included.
Use command
  tezos-client wait for [OPERATION_HASH] to be included --confirmations 1 --branch [BLOCK_HASH]
and/or an external block explorer to make sure that it has been included.
This sequence of operations was run:
  Manager signed operations:
    From: [PUBLIC_KEY_HASH]
    Fee to the baker: ꜩ0.000479
    Expected counter: 1
    Gas limit: 1977
    Storage limit: 0 bytes
    Balance updates:
      [PUBLIC_KEY_HASH] ... -ꜩ0.000479
      payload fees(the block proposer) ....... +ꜩ0.000479
    Smart contract rollup messages submission:
      Address: [SC_ROLLUP_HASH]
      This smart contract rollup messages submission was successfully applied
      Consumed gas: 1876.850
      Resulting inbox state: { rollup = [SC_ROLLUP_HASH]
                               level = 3
                               current messages hash  = [SC_ROLLUP_INBOX_HASH]
                               nb_messages_in_commitment_period = 1
                               starting_level_of_current_commitment_period = 2
                               message_counter = 1
                               old_levels_messages = hash : [SC_ROLLUP_INBOX_HASH]
                                                     
       content = [SC_ROLLUP_INBOX_HASH]
       index = 1
       back_pointers = [SC_ROLLUP_INBOX_HASH]
    
                               }


./tezos-client --wait none send sc rollup message 'text:["CAFEBABE","CAFEBABE"]' from bootstrap2 to '[SC_ROLLUP_HASH]'
Node is bootstrapped.
Estimated gas: 1877.540 units (will add 100 for safety)
Estimated storage: no bytes added
Operation successfully injected in the node.
Operation hash is '[OPERATION_HASH]'
NOT waiting for the operation to be included.
Use command
  tezos-client wait for [OPERATION_HASH] to be included --confirmations 1 --branch [BLOCK_HASH]
and/or an external block explorer to make sure that it has been included.
This sequence of operations was run:
  Manager signed operations:
    From: [PUBLIC_KEY_HASH]
    Fee to the baker: ꜩ0.000491
    Expected counter: 2
    Gas limit: 1978
    Storage limit: 0 bytes
    Balance updates:
      [PUBLIC_KEY_HASH] ... -ꜩ0.000491
      payload fees(the block proposer) ....... +ꜩ0.000491
    Smart contract rollup messages submission:
      Address: [SC_ROLLUP_HASH]
      This smart contract rollup messages submission was successfully applied
      Consumed gas: 1877.668
      Resulting inbox state: { rollup = [SC_ROLLUP_HASH]
                               level = 4
                               current messages hash  = [SC_ROLLUP_INBOX_HASH]
                               nb_messages_in_commitment_period = 3
                               starting_level_of_current_commitment_period = 2
                               message_counter = 2
                               old_levels_messages = hash : [SC_ROLLUP_INBOX_HASH]
                                                     
       content = [SC_ROLLUP_INBOX_HASH]
       index = 2
       back_pointers = [SC_ROLLUP_INBOX_HASH]
                                                     [SC_ROLLUP_INBOX_HASH]
    
                               }


./tezos-client --wait none send sc rollup message 'text:["CAFEBABE","CAFEBABE","CAFEBABE"]' from bootstrap2 to '[SC_ROLLUP_HASH]'
Node is bootstrapped.
Estimated gas: 1878.343 units (will add 100 for safety)
Estimated storage: no bytes added
Operation successfully injected in the node.
Operation hash is '[OPERATION_HASH]'
NOT waiting for the operation to be included.
Use command
  tezos-client wait for [OPERATION_HASH] to be included --confirmations 1 --branch [BLOCK_HASH]
and/or an external block explorer to make sure that it has been included.
This sequence of operations was run:
  Manager signed operations:
    From: [PUBLIC_KEY_HASH]
    Fee to the baker: ꜩ0.000503
    Expected counter: 3
    Gas limit: 1979
    Storage limit: 0 bytes
    Balance updates:
      [PUBLIC_KEY_HASH] ... -ꜩ0.000503
      payload fees(the block proposer) ....... +ꜩ0.000503
    Smart contract rollup messages submission:
      Address: [SC_ROLLUP_HASH]
      This smart contract rollup messages submission was successfully applied
      Consumed gas: 1878.343
      Resulting inbox state: { rollup = [SC_ROLLUP_HASH]
                               level = 5
                               current messages hash  = [SC_ROLLUP_INBOX_HASH]
                               nb_messages_in_commitment_period = 6
                               starting_level_of_current_commitment_period = 2
                               message_counter = 3
                               old_levels_messages = hash : [SC_ROLLUP_INBOX_HASH]
                                                     
       content = [SC_ROLLUP_INBOX_HASH]
       index = 3
       back_pointers = [SC_ROLLUP_INBOX_HASH]
                                                     [SC_ROLLUP_INBOX_HASH]
    
                               }


./tezos-client --wait none send sc rollup message 'text:["CAFEBABE","CAFEBABE","CAFEBABE","CAFEBABE"]' from bootstrap2 to '[SC_ROLLUP_HASH]'
Node is bootstrapped.
Estimated gas: 1878.939 units (will add 100 for safety)
Estimated storage: no bytes added
Operation successfully injected in the node.
Operation hash is '[OPERATION_HASH]'
NOT waiting for the operation to be included.
Use command
  tezos-client wait for [OPERATION_HASH] to be included --confirmations 1 --branch [BLOCK_HASH]
and/or an external block explorer to make sure that it has been included.
This sequence of operations was run:
  Manager signed operations:
    From: [PUBLIC_KEY_HASH]
    Fee to the baker: ꜩ0.000515
    Expected counter: 4
    Gas limit: 1979
    Storage limit: 0 bytes
    Balance updates:
      [PUBLIC_KEY_HASH] ... -ꜩ0.000515
      payload fees(the block proposer) ....... +ꜩ0.000515
    Smart contract rollup messages submission:
      Address: [SC_ROLLUP_HASH]
      This smart contract rollup messages submission was successfully applied
      Consumed gas: 1879.067
      Resulting inbox state: { rollup = [SC_ROLLUP_HASH]
                               level = 6
                               current messages hash  = [SC_ROLLUP_INBOX_HASH]
                               nb_messages_in_commitment_period = 10
                               starting_level_of_current_commitment_period = 2
                               message_counter = 4
                               old_levels_messages = hash : [SC_ROLLUP_INBOX_HASH]
                                                     
       content = [SC_ROLLUP_INBOX_HASH]
       index = 4
       back_pointers = [SC_ROLLUP_INBOX_HASH]
                                                     [SC_ROLLUP_INBOX_HASH]
                                                     [SC_ROLLUP_INBOX_HASH]
    
                               }


./tezos-client --wait none send sc rollup message 'text:["CAFEBABE","CAFEBABE","CAFEBABE","CAFEBABE","CAFEBABE"]' from bootstrap2 to '[SC_ROLLUP_HASH]'
Node is bootstrapped.
Estimated gas: 1879.742 units (will add 100 for safety)
Estimated storage: no bytes added
Operation successfully injected in the node.
Operation hash is '[OPERATION_HASH]'
NOT waiting for the operation to be included.
Use command
  tezos-client wait for [OPERATION_HASH] to be included --confirmations 1 --branch [BLOCK_HASH]
and/or an external block explorer to make sure that it has been included.
This sequence of operations was run:
  Manager signed operations:
    From: [PUBLIC_KEY_HASH]
    Fee to the baker: ꜩ0.000527
    Expected counter: 5
    Gas limit: 1980
    Storage limit: 0 bytes
    Balance updates:
      [PUBLIC_KEY_HASH] ... -ꜩ0.000527
      payload fees(the block proposer) ....... +ꜩ0.000527
    Smart contract rollup messages submission:
      Address: [SC_ROLLUP_HASH]
      This smart contract rollup messages submission was successfully applied
      Consumed gas: 1879.742
      Resulting inbox state: { rollup = [SC_ROLLUP_HASH]
                               level = 7
                               current messages hash  = [SC_ROLLUP_INBOX_HASH]
                               nb_messages_in_commitment_period = 15
                               starting_level_of_current_commitment_period = 2
                               message_counter = 5
                               old_levels_messages = hash : [SC_ROLLUP_INBOX_HASH]
                                                     
       content = [SC_ROLLUP_INBOX_HASH]
       index = 5
       back_pointers = [SC_ROLLUP_INBOX_HASH]
                                                     [SC_ROLLUP_INBOX_HASH]
                                                     [SC_ROLLUP_INBOX_HASH]
    
                               }


./tezos-client --wait none send sc rollup message 'text:["CAFEBABE","CAFEBABE","CAFEBABE","CAFEBABE","CAFEBABE","CAFEBABE"]' from bootstrap2 to '[SC_ROLLUP_HASH]'
Node is bootstrapped.
Estimated gas: 1880.338 units (will add 100 for safety)
Estimated storage: no bytes added
Operation successfully injected in the node.
Operation hash is '[OPERATION_HASH]'
NOT waiting for the operation to be included.
Use command
  tezos-client wait for [OPERATION_HASH] to be included --confirmations 1 --branch [BLOCK_HASH]
and/or an external block explorer to make sure that it has been included.
This sequence of operations was run:
  Manager signed operations:
    From: [PUBLIC_KEY_HASH]
    Fee to the baker: ꜩ0.00054
    Expected counter: 6
    Gas limit: 1981
    Storage limit: 0 bytes
    Balance updates:
      [PUBLIC_KEY_HASH] ... -ꜩ0.00054
      payload fees(the block proposer) ....... +ꜩ0.00054
    Smart contract rollup messages submission:
      Address: [SC_ROLLUP_HASH]
      This smart contract rollup messages submission was successfully applied
      Consumed gas: 1880.338
      Resulting inbox state: { rollup = [SC_ROLLUP_HASH]
                               level = 8
                               current messages hash  = [SC_ROLLUP_INBOX_HASH]
                               nb_messages_in_commitment_period = 21
                               starting_level_of_current_commitment_period = 2
                               message_counter = 6
                               old_levels_messages = hash : [SC_ROLLUP_INBOX_HASH]
                                                     
       content = [SC_ROLLUP_INBOX_HASH]
       index = 6
       back_pointers = [SC_ROLLUP_INBOX_HASH]
                                                     [SC_ROLLUP_INBOX_HASH]
                                                     [SC_ROLLUP_INBOX_HASH]
    
                               }


./tezos-client --wait none send sc rollup message 'text:["CAFEBABE","CAFEBABE","CAFEBABE","CAFEBABE","CAFEBABE","CAFEBABE","CAFEBABE"]' from bootstrap2 to '[SC_ROLLUP_HASH]'
Node is bootstrapped.
Estimated gas: 1880.934 units (will add 100 for safety)
Estimated storage: no bytes added
Operation successfully injected in the node.
Operation hash is '[OPERATION_HASH]'
NOT waiting for the operation to be included.
Use command
  tezos-client wait for [OPERATION_HASH] to be included --confirmations 1 --branch [BLOCK_HASH]
and/or an external block explorer to make sure that it has been included.
This sequence of operations was run:
  Manager signed operations:
    From: [PUBLIC_KEY_HASH]
    Fee to the baker: ꜩ0.000552
    Expected counter: 7
    Gas limit: 1981
    Storage limit: 0 bytes
    Balance updates:
      [PUBLIC_KEY_HASH] ... -ꜩ0.000552
      payload fees(the block proposer) ....... +ꜩ0.000552
    Smart contract rollup messages submission:
      Address: [SC_ROLLUP_HASH]
      This smart contract rollup messages submission was successfully applied
      Consumed gas: 1880.934
      Resulting inbox state: { rollup = [SC_ROLLUP_HASH]
                               level = 9
                               current messages hash  = [SC_ROLLUP_INBOX_HASH]
                               nb_messages_in_commitment_period = 28
                               starting_level_of_current_commitment_period = 2
                               message_counter = 7
                               old_levels_messages = hash : [SC_ROLLUP_INBOX_HASH]
                                                     
       content = [SC_ROLLUP_INBOX_HASH]
       index = 7
       back_pointers = [SC_ROLLUP_INBOX_HASH]
                                                     [SC_ROLLUP_INBOX_HASH]
                                                     [SC_ROLLUP_INBOX_HASH]
    
                               }


./tezos-client --wait none send sc rollup message 'text:["CAFEBABE","CAFEBABE","CAFEBABE","CAFEBABE","CAFEBABE","CAFEBABE","CAFEBABE","CAFEBABE"]' from bootstrap2 to '[SC_ROLLUP_HASH]'
Node is bootstrapped.
Estimated gas: 1881.530 units (will add 100 for safety)
Estimated storage: no bytes added
Operation successfully injected in the node.
Operation hash is '[OPERATION_HASH]'
NOT waiting for the operation to be included.
Use command
  tezos-client wait for [OPERATION_HASH] to be included --confirmations 1 --branch [BLOCK_HASH]
and/or an external block explorer to make sure that it has been included.
This sequence of operations was run:
  Manager signed operations:
    From: [PUBLIC_KEY_HASH]
    Fee to the baker: ꜩ0.000564
    Expected counter: 8
    Gas limit: 1982
    Storage limit: 0 bytes
    Balance updates:
      [PUBLIC_KEY_HASH] ... -ꜩ0.000564
      payload fees(the block proposer) ....... +ꜩ0.000564
    Smart contract rollup messages submission:
      Address: [SC_ROLLUP_HASH]
      This smart contract rollup messages submission was successfully applied
      Consumed gas: 1881.658
      Resulting inbox state: { rollup = [SC_ROLLUP_HASH]
                               level = 10
                               current messages hash  = [SC_ROLLUP_INBOX_HASH]
                               nb_messages_in_commitment_period = 36
                               starting_level_of_current_commitment_period = 2
                               message_counter = 8
                               old_levels_messages = hash : [SC_ROLLUP_INBOX_HASH]
                                                     
       content = [SC_ROLLUP_INBOX_HASH]
       index = 8
       back_pointers = [SC_ROLLUP_INBOX_HASH]
                                                     [SC_ROLLUP_INBOX_HASH]
                                                     [SC_ROLLUP_INBOX_HASH]
                                                     [SC_ROLLUP_INBOX_HASH]
    
                               }


./tezos-client --wait none send sc rollup message 'text:["CAFEBABE","CAFEBABE","CAFEBABE","CAFEBABE","CAFEBABE","CAFEBABE","CAFEBABE","CAFEBABE","CAFEBABE"]' from bootstrap2 to '[SC_ROLLUP_HASH]'
Node is bootstrapped.
Estimated gas: 1882.333 units (will add 100 for safety)
Estimated storage: no bytes added
Operation successfully injected in the node.
Operation hash is '[OPERATION_HASH]'
NOT waiting for the operation to be included.
Use command
  tezos-client wait for [OPERATION_HASH] to be included --confirmations 1 --branch [BLOCK_HASH]
and/or an external block explorer to make sure that it has been included.
This sequence of operations was run:
  Manager signed operations:
    From: [PUBLIC_KEY_HASH]
    Fee to the baker: ꜩ0.000576
    Expected counter: 9
    Gas limit: 1983
    Storage limit: 0 bytes
    Balance updates:
      [PUBLIC_KEY_HASH] ... -ꜩ0.000576
      payload fees(the block proposer) ....... +ꜩ0.000576
    Smart contract rollup messages submission:
      Address: [SC_ROLLUP_HASH]
      This smart contract rollup messages submission was successfully applied
      Consumed gas: 1882.333
      Resulting inbox state: { rollup = [SC_ROLLUP_HASH]
                               level = 11
                               current messages hash  = [SC_ROLLUP_INBOX_HASH]
                               nb_messages_in_commitment_period = 45
                               starting_level_of_current_commitment_period = 2
                               message_counter = 9
                               old_levels_messages = hash : [SC_ROLLUP_INBOX_HASH]
                                                     
       content = [SC_ROLLUP_INBOX_HASH]
       index = 9
       back_pointers = [SC_ROLLUP_INBOX_HASH]
                                                     [SC_ROLLUP_INBOX_HASH]
                                                     [SC_ROLLUP_INBOX_HASH]
                                                     [SC_ROLLUP_INBOX_HASH]
    
                               }


./tezos-client --wait none send sc rollup message 'text:["CAFEBABE","CAFEBABE","CAFEBABE","CAFEBABE","CAFEBABE","CAFEBABE","CAFEBABE","CAFEBABE","CAFEBABE","CAFEBABE"]' from bootstrap2 to '[SC_ROLLUP_HASH]'
Node is bootstrapped.
Estimated gas: 1882.929 units (will add 100 for safety)
Estimated storage: no bytes added
Operation successfully injected in the node.
Operation hash is '[OPERATION_HASH]'
NOT waiting for the operation to be included.
Use command
  tezos-client wait for [OPERATION_HASH] to be included --confirmations 1 --branch [BLOCK_HASH]
and/or an external block explorer to make sure that it has been included.
This sequence of operations was run:
  Manager signed operations:
    From: [PUBLIC_KEY_HASH]
    Fee to the baker: ꜩ0.000588
    Expected counter: 10
    Gas limit: 1983
    Storage limit: 0 bytes
    Balance updates:
      [PUBLIC_KEY_HASH] ... -ꜩ0.000588
      payload fees(the block proposer) ....... +ꜩ0.000588
    Smart contract rollup messages submission:
      Address: [SC_ROLLUP_HASH]
      This smart contract rollup messages submission was successfully applied
      Consumed gas: 1882.929
      Resulting inbox state: { rollup = [SC_ROLLUP_HASH]
                               level = 12
                               current messages hash  = [SC_ROLLUP_INBOX_HASH]
                               nb_messages_in_commitment_period = 55
                               starting_level_of_current_commitment_period = 2
                               message_counter = 10
                               old_levels_messages = hash : [SC_ROLLUP_INBOX_HASH]
                                                     
       content = [SC_ROLLUP_INBOX_HASH]
       index = 10
       back_pointers = [SC_ROLLUP_INBOX_HASH]
                                                     [SC_ROLLUP_INBOX_HASH]
                                                     [SC_ROLLUP_INBOX_HASH]
                                                     [SC_ROLLUP_INBOX_HASH]
    
                               }

